3180
4980
5400
780
1340
960
15910
2440
12090
15910
17000
19460
960
9210
7620
7620
780
960
780
3180
7380
3180
3180
960
4990
5400
3180
960
3180
5400
3580
7620
5400
3180
5400
960
960
2580
960
5430
960
3180
3180
5400
960
960
5400
4980
4980
4980
4980
4980
4980
4980
4980
3180
960
960
780
960
1900
